{
    "name": "rescript",
    "version": "0.0.1",
    "sources": {
        "dir" : "src",
        "subdirs" : true
    },
    "package-specs": {
        "module": "es6-global",
        "in-source": false
    },
    "suffix": ".bs.js",
    "bs-dependencies": [
        "res-elm",
        "rescript-indexeddb",
        "rescript-reap",
        "rescript-util"
    ],
    "warnings": {
        "error" : "+101"
    },
    "namespace": true,
    "refmt": 3
}
